…
| term        | estimate | std.error | statistic | p.value |
|:------------|---------:|----------:|----------:|--------:|
| (Intercept) |    2.077 |     0.093 |    22.445 |       0 |
| x           |    3.019 |     0.068 |    44.587 |       0 |

## Use bootstrap for inference on the non-constant modle

``` r
sim_df_nonconst %>% 
  sample_frac(size = 1, replace = TRUE) %>% 
  arrange(x)
```

    ## # A tibble: 250 × 3
    ##         x   error      y
    ##     <dbl>   <dbl>  <dbl>
    ##  1 -1.75   1.34   -1.90 
    ##  2 -1.75   1.34   -1.90 
    ##  3 -1.34  -0.356  -2.39 
    ##  4 -1.34  -0.356  -2.39 
    ##  5 -1.19  -0.0488 -1.62 
    ##  6 -1.16   0.194  -1.27 
    ##  7 -1.16   0.194  -1.27 
    ##  8 -1.08   1.56    0.339
    ##  9 -1.08   1.56    0.339
    ## 10 -0.965  0.513  -0.382
    ## # … with 240 more rows
…
If we do the same thing on the constant variance simulation, the se of
intercept and x will be close for both bootstrapped and unbootstraped

## Use `modelr`

``` r
sim_df_nonconst %>% 
  bootstrap(n = 1000, id = "strap_number") %>% 
  mutate(
    models = map(.x = strap, ~lm(y~x, data = .x)),
    results = map(models, broom::tidy)
  )
```

    ## # A tibble: 1,000 × 4
    ##    strap                strap_number models results         
    ##    <list>               <chr>        <list> <list>          
    ##  1 <resample [250 x 3]> 0001         <lm>   <tibble [2 × 5]>
    ##  2 <resample [250 x 3]> 0002         <lm>   <tibble [2 × 5]>
    ##  3 <resample [250 x 3]> 0003         <lm>   <tibble [2 × 5]>
    ##  4 <resample [250 x 3]> 0004         <lm>   <tibble [2 × 5]>
    ##  5 <resample [250 x 3]> 0005         <lm>   <tibble [2 × 5]>
    ##  6 <resample [250 x 3]> 0006         <lm>   <tibble [2 × 5]>
    ##  7 <resample [250 x 3]> 0007         <lm>   <tibble [2 × 5]>
    ##  8 <resample [250 x 3]> 0008         <lm>   <tibble [2 × 5]>
    ##  9 <resample [250 x 3]> 0009         <lm>   <tibble [2 × 5]>
    ## 10 <resample [250 x 3]> 0010         <lm>   <tibble [2 × 5]>
    ## # … with 990 more rows
…
